{
   "request": {
      "method": "get",
      "additional_path": "posts/1",
      "payload": ""
   },
   "response":{
      "userId":1,
      "id":1,
      "title":"sunt aut facere repellat provident occaecati excepturi optio reprehenderit",
      "body":"quia et suscipit\nsuscipit recusandae consequuntur expedita et cum\nreprehenderit molestiae ut ut quas totam\nnostrum rerum est autem sunt rem eveniet architecto"
   },
   "response_code": 200
}
