{
   "request":{
      "method":"post",
      "additional_path":"posts",
      "payload":{
         "title":"foo",
         "body":"bar",
         "userId":1
      }
   },
   "response":{
      "userId":1,
      "id":101,
      "title":"foo",
      "body":"bar"
   },
   "response_code":200
}
