{
   "request": {
      "method": "get",
      "additional_path": "api/appointments",
      "payload": {
                      "user_id": 1,
                      "user_token": "Bearer shuahsuahsuahsu8472394"
                    }
                  

      
              
   },
   "response": 

    {
    "schedules": [
        {   "appointment_id":1,    
            "specialty": {
                "result_time": 7,
                "result_details": "dias úteis",
                "name": "Ácido Hipúrico",
                "category_name": "Exame",
                "price": 12.00, 
                "comments": "Lavar as mãos antes de colher. Colher urina após retenção urinária de 4 horas."
            },
            "clinic": {
                "name": "Itaperi",
                "address": "Av. Dr. Silas Munguba, 2745 - Fortaleza",
                "working_days": ["Seg", "Ter", "Qua", "Qui", "Sex"]
            },
            "date_info": {
                "start_date": "",
                "end_date": ""
            }
        },
        {   "appointment_id":2,
            "specialty": {
                "name": "Oftalmologia",
                "category_name": "Consulta",
                "price": 75.00,                
                "comments": "As consultas dão direito a 1 retorno em até 30 dias."
            },
            "doctor": {
                "id": 1,
                "name": "Teogina Opressas Santos",
                "genre": "F",
                "professional_identity": "CRM 456123",
                "details": null
            },
            "clinic": {
                "name": "Montese / Parangaba",
                "address": "Rua Almirante Ribim, 1400 - Fortaleza",
                "working_days": ["Seg", "Ter", "Qua", "Qui", "Sex"]
            },
            "date_info": {
                "start_date": "2017-05-17T20:28:37.215Z",
                "end_date": "2017-05-17T22:28:37.215Z"
            }
        }
    ]
}
  ,
   "expected_response_code": 200
}
